…
# Read the data

The first thing we need to do is to read the data. Notice that this is a text file, so we will nee dto use the `read_delim()` function. Exploring the file we see that the separator is a tab.


```r
beach_data_original <- read_delim(here("data", "beach_data.txt"), delim = "\t")


beach_data_original
```

```
## # A tibble: 45 × 5
##    Sample Richness Exposure    NAP Beach
##     <dbl>    <dbl>    <dbl>  <dbl> <dbl>
##  1      1       11       10  0.045     1
##  2      2       10       10 -1.04      1
##  3      3       13       10 -1.34      1
##  4      4       11       10  0.616     1
##  5      5       10       10 -0.684     1
##  6      6        8        8  1.19      2
##  7      7        9        8  0.82      2
##  8      8        8        8  0.635     2
##  9      9       19        8  0.061     2
## 10     10       17        8 -1.33      2
## # … with 35 more rows
```
…
# Data clean up

First we will do some basic clean up of the variable names and to make our life a bit easier we will just select the variables we need: beach, richness and nap


```r
beach_data <- beach_data_original %>% 
  clean_names() %>% 
  select(beach, richness, nap)

beach_data
```

```
## # A tibble: 45 × 3
##    beach richness    nap
##    <dbl>    <dbl>  <dbl>
##  1     1       11  0.045
##  2     1       10 -1.04 
##  3     1       13 -1.34 
##  4     1       11  0.616
##  5     1       10 -0.684
##  6     2        8  1.19 
##  7     2        9  0.82 
##  8     2        8  0.635
##  9     2       19  0.061
## 10     2       17 -1.33 
## # … with 35 more rows
```
…
